{
	"imports": {
		"@dx/reflect": "jsr:@dx/reflect@^0.2.8",
		"@hono/hono": "jsr:@hono/hono@^4.4.12",
		"@std/io": "jsr:@std/io@^0.224.3",
		"@std/testing": "jsr:@std/testing@^0.225.3",
		"@std/uuid": "jsr:@std/uuid@^1.0.0",
		"@types/express": "npm:@types/express@^4.17.21",
		"express": "npm:express@^4.19.2"
	},
	"tasks": {
		"start:dev": "deno run --watch --allow-all example/main.ts"
	},
	"fmt": {
		"useTabs": true,
		"lineWidth": 100,
		"indentWidth": 4,
		"semiColons": true,
		"singleQuote": true,
		"proseWrap": "preserve"
	},
	"lint": {
		"rules": {
			"tags": ["recommended"],
			"include": ["explicit-function-return-type"],
			"exclude": ["no-unused-vars", "no-explicit-any"]
		}
	},
	"compilerOptions": {
		"experimentalDecorators": true,
		"emitDecoratorMetadata": true
	}
}
